<?xml version="1.0" encoding="UTF-8"?>
<session version="1.0">
<refactoring comment="Delete resource &apos;VGA_2&apos;" deleteContents="true" description="Delete resource &apos;VGA_2&apos;" element1="/VGA_2" flags="7" id="org.eclipse.ltk.core.refactoring.delete.resources" resources="1" stamp="1513611922162"/>
</session>